{
    "metadata" : {
                    "id": "b_001",
                    "class": "Β",
                    "title" : "Εργονομία",
                    "subtitle" : "Τα μέρη του σώματος που καταπονούνται στον ΗΥ"
                },
    "nodes" : {
                    "0" :   { 
                        "id" : "pc_use",
                        "description" : "ΕΡΓΟΝΟΜΙΑ<img width=90 height=90 src='activities/b_001/ergonomy.jpg' />",
                        "targets" : "id0,id1,id2,id3,id4"
                    },
                    "1" :   { 
                        "id" : "id0",
                        "description" : "Αυχένας<img width=90 height=90 src='activities/b_001/nape.jpg' />",
                        "targets" : ""
                    },
                    "2" :   { 
                        "id" : "id1",
                        "description" : "Γόνατο<img width=90 height=90 src='activities/b_001/knee.jpg' />",
                        "targets" : ""
                    },
                    "3" :   { 
                        "id" : "id2",
                        "description" : "Μέση<img width=90 height=90 src='activities/b_001/back.jpg' />",
                        "targets" : ""
                    },
                    "4" :   { 
                        "id" : "id3",
                        "description" : "Καρπός<img width=90 height=90 src='activities/b_001/wrist.jpg' />",
                        "targets" : ""
                    },
                    "5" :   { 
                        "id" : "id4",
                        "description" : "Αστράγαλος<img width=90 height=90 src='activities/b_001/ankle.jpg' />",
                        "targets" : ""
                    }
                }   
}
