{
    "metadata" : {
                    "id": "c_001",
                    "class": "Γ",
                    "title" : "Μέσα ή έξω από τον Υπολογιστή",
                    "subtitle" : "Μέσα ή έξω από τον Υπολογιστή"
                },
    "nodes" : {
                    "0" :   { 
                        "id" : "pc",
                        "description" : "<img src='activities/c_001/image00.png' width=100 height=100 />",
                        "targets" : "hyin,hyout"
                    },
                    "1" :   { 
                        "id" : "cpu",
                        "description" : "<img src='activities/c_001/cpu.png' width=100 height=100 />",
                        "targets" : ""
                    },
                    "2" :   { 
                        "id" : "hdd",
                        "description" : "<img src='activities/c_001/hard-disk.png' width=100 height=100  />",
                        "targets" : ""
                    },
                    "3" :   { 
                        "id" : "keyboard",
                        "description" : "<img src='activities/c_001/keyboard.png' width=100 height=100  />",
                        "targets" : ""
                    },
                    "4" :   { 
                        "id" : "mouse",
                        "description" : "<img src='activities/c_001/mouse.png' width=100 height=100  />",
                        "targets" : ""
                    },
                    "5" :   { 
                        "id" : "printer",
                        "description" : "<img src='activities/c_001/printer.png' width=100 height=100  />",
                        "targets" : ""
                    },
                    "6" :   { 
                        "id" : "ram",
                        "description" : "<img src='activities/c_001/ram.png' width=100 height=100  />",
                        "targets" : ""
                    },
                    "7" :   { 
                        "id" : "trofo",
                        "description" : "<img src='activities/c_001/trofodotiko.png' width=100 height=100  />",
                        "targets" : ""
                    },
                    "8" :   { 
                        "id" : "speakers",
                        "description" : "<img src='activities/c_001/speakers.png' width=100 height=100  />",
                        "targets" : ""
                    },
                    "9" :   { 
                        "id" : "hyin",
                        "description" : "Μέσα στον ΗΥ",
                        "targets" : "cpu,hdd,ram,trofo"
                    }, 
                    "10" :   { 
                        "id" : "hyout",
                        "description" : "Γύρω από τον ΗΥ",
                        "targets" : "keyboard,mouse,printer,speakers"
                    }
                }   
}
